*** Darwin 3x20 ***
Turn = 0.
  01234567890123456789
0 ..f.................
1 ........th.t..f.....
2 ....................

Turn = 1.
  01234567890123456789
0 ..f.................
1 ........th.t..f.....
2 ....................

Turn = 2.
  01234567890123456789
0 ..f.................
1 ........th.t..f.....
2 ....................

Turn = 3.
  01234567890123456789
0 ..f.................
1 ........tt.t..f.....
2 ....................

Turn = 4.
  01234567890123456789
0 ..f.................
1 ........tt.t..f.....
2 ....................

Turn = 5.
  01234567890123456789
0 ..f.................
1 ........tt.t..f.....
2 ....................

*** Darwin 8x14 ***
Turn = 0.
  01234567890123
0 .........rh..t
1 ..h...........
2 ..r..r........
3 ..............
4 ..............
5 ...r..........
6 .r............
7 ..............

Turn = 7.
  01234567890123
0 rrh..........t
1 ..............
2 ..............
3 ..............
4 ..............
5 ..............
6 ..............
7 r...r....rh...

*** Darwin 10x8 ***
Turn = 0.
  01234567
0 ........
1 ........
2 ........
3 ........
4 ....h...
5 .....f..
6 t.......
7 .......h
8 ....r...
9 ........

Turn = 3.
  01234567
0 ........
1 ........
2 ........
3 ........
4 .......h
5 .....f..
6 t.......
7 ....h...
8 .......r
9 ........

Turn = 6.
  01234567
0 ........
1 .......h
2 ........
3 ........
4 ........
5 .....f..
6 t.......
7 ........
8 ........
9 ....h..r

Turn = 9.
  01234567
0 .......h
1 ........
2 ........
3 ........
4 ........
5 .....f..
6 t.......
7 ........
8 ........
9 ....h.r.

Turn = 12.
  01234567
0 .......h
1 ........
2 ........
3 ........
4 ........
5 .....f..
6 t.......
7 ........
8 ........
9 ....rr..

Turn = 15.
  01234567
0 .......h
1 ........
2 ........
3 ........
4 ........
5 .....f..
6 t....r..
7 ........
8 ........
9 .r......

Turn = 18.
  01234567
0 .......h
1 ........
2 ........
3 ........
4 ........
5 ......r.
6 t...r...
7 ........
8 r.......
9 ........

*** Darwin 17x5 ***
Turn = 0.
  01234
0 .....
1 ...f.
2 .....
3 f....
4 .....
5 .....
6 .....
7 .....
8 .....
9 .....
0 ..f..
1 .....
2 .h...
3 ..f..
4 .....
5 .....
6 .....

Turn = 8.
  01234
0 .....
1 ...f.
2 .....
3 f....
4 .....
5 .....
6 .....
7 .....
8 .....
9 .....
0 ..f..
1 .....
2 ....h
3 ..f..
4 .....
5 .....
6 .....

*** Darwin 9x13 ***
Turn = 0.
  0123456789012
0 ........h....
1 .............
2 .............
3 ...........f.
4 f.f.......f..
5 .............
6 .............
7 .............
8 .r........t..

Turn = 8.
  0123456789012
0 h............
1 .............
2 .............
3 r..........f.
4 .rr.......f..
5 .............
6 .............
7 .............
8 ..........t..

*** Darwin 4x9 ***
Turn = 0.
  012345678
0 .r.......
1 ....t....
2 h...r.h..
3 ...t.....

Turn = 7.
  012345678
0 ........r
1 ....tr..r
2 .........
3 h..t.....

Turn = 14.
  012345678
0 ........r
1 ....tt...
2 .........
3 h..t.r...

*** Darwin 17x10 ***
Turn = 0.
  0123456789
0 ..........
1 .r....t...
2 .....h....
3 ........ht
4 ..f.......
5 .....f....
6 ..........
7 ..........
8 ..........
9 ..........
0 ..........
1 .f........
2 ..........
3 ...t......
4 ...t..r.f.
5 ..........
6 r.........

Turn = 6.
  0123456789
0 ..........
1 .....tt...
2 h.........
3 .........t
4 ..f.......
5 .....f....
6 ..........
7 ..........
8 ......r...
9 ........h.
0 ..........
1 rf........
2 ..........
3 ...t......
4 ...t....f.
5 ..........
6 ..........

*** Darwin 1x4 ***
Turn = 0.
  0123
0 rf.t

Turn = 3.
  0123
0 rf.t

Turn = 6.
  0123
0 rr.t

*** Darwin 15x17 ***
Turn = 0.
  01234567890123456
0 .............f...
1 ...........t.....
2 .................
3 .................
4 .................
5 .................
6 ..h..............
7 .................
8 .............r...
9 ..............f..
0 .................
1 h...........r....
2 .................
3 ......t..........
4 ....f...........h

Turn = 2.
  01234567890123456
0 .............f...
1 ...........t.....
2 .................
3 .................
4 ..h..............
5 .................
6 .................
7 .................
8 .................
9 h.............f..
0 .............r...
1 ..........r......
2 .................
3 ......t..........
4 ....f.........h..

Turn = 4.
  01234567890123456
0 .............f...
1 ...........t.....
2 ..h..............
3 .................
4 .................
5 .................
6 .................
7 h................
8 .................
9 ..............f..
0 .................
1 ........r........
2 .............r...
3 ......t..........
4 ....f.......h....

Turn = 6.
  01234567890123456
0 ..h..........f...
1 ...........t.....
2 .................
3 .................
4 .................
5 h................
6 .................
7 .................
8 .................
9 ..............f..
0 .................
1 ......r..........
2 .................
3 ......t..........
4 ....f.....h..r...

*** Darwin 3x5 ***
Turn = 0.
  01234
0 ..h..
1 ..hh.
2 ..t..

Turn = 5.
  01234
0 ....h
1 ..tt.
2 ..t..

*** Darwin 20x6 ***
Turn = 0.
  012345
0 ...f..
1 ...r..
2 ......
3 ......
4 ......
5 .r.hh.
6 ..r...
7 ......
8 r.....
9 ......
0 ....r.
1 ....r.
2 ...h..
3 ...tf.
4 ......
5 ......
6 ......
7 ......
8 ......
9 f.....

Turn = 1.
  012345
0 ...f..
1 ....r.
2 ......
3 ......
4 .r.hh.
5 ......
6 ...r..
7 ......
8 .r....
9 ......
0 ...r..
1 ......
2 ...hr.
3 ...tt.
4 ......
5 ......
6 ......
7 ......
8 ......
9 f.....

Turn = 2.
  012345
0 ...f..
1 .....r
2 ......
3 .r.hh.
4 ......
5 ......
6 ....r.
7 ......
8 ..r...
9 ......
0 ..r...
1 ......
2 ...ht.
3 ...tt.
4 ......
5 ......
6 ......
7 ......
8 ......
9 f.....

Turn = 3.
  012345
0 ...f..
1 .....r
2 .r.hh.
3 ......
4 ......
5 ......
6 .....r
7 ......
8 ...r..
9 ......
0 .r....
1 ......
2 ...ht.
3 ...tt.
4 ......
5 ......
6 ......
7 ......
8 ......
9 f.....

Turn = 4.
  012345
0 ...f..
1 .r.hh.
2 .....r
3 ......
4 ......
5 ......
6 .....r
7 ......
8 ....r.
9 ......
0 r.....
1 ......
2 ...tt.
3 ...tt.
4 ......
5 ......
6 ......
7 ......
8 ......
9 f.....

Turn = 5.
  012345
0 .r.fh.
1 ...h..
2 ......
3 .....r
4 ......
5 .....r
6 ......
7 ......
8 .....r
9 ......
0 r.....
1 ......
2 ...tt.
3 ...tt.
4 ......
5 ......
6 ......
7 ......
8 ......
9 f.....

Turn = 6.
  012345
0 .r.fh.
1 ...h..
2 ......
3 ......
4 .....r
5 .....r
6 ......
7 ......
8 .....r
9 r.....
0 ......
1 ......
2 ...tt.
3 ...tt.
4 ......
5 ......
6 ......
7 ......
8 ......
9 f.....

Turn = 7.
  012345
0 ..rfh.
1 ...h..
2 ......
3 ......
4 .....r
5 .....r
6 ......
7 ......
8 r.....
9 .....r
0 ......
1 ......
2 ...tt.
3 ...tt.
4 ......
5 ......
6 ......
7 ......
8 ......
9 f.....

Turn = 8.
  012345
0 ..rrr.
1 ...h..
2 ......
3 ......
4 .....r
5 .....r
6 ......
7 r.....
8 ......
9 ......
0 .....r
1 ......
2 ...tt.
3 ...tt.
4 ......
5 ......
6 ......
7 ......
8 ......
9 f.....

*** Darwin 12x4 ***
Turn = 0.
  0123
0 ....
1 h...
2 ....
3 h...
4 ....
5 ....
6 ....
7 ....
8 ....
9 ....
0 .f..
1 ....

Turn = 6.
  0123
0 h...
1 h...
2 ....
3 ....
4 ....
5 ....
6 ....
7 ....
8 ....
9 ....
0 .f..
1 ....

*** Darwin 13x1 ***
Turn = 0.
  0
0 .
1 .
2 .
3 .
4 t
5 .
6 t
7 .
8 .
9 .
0 r
1 .
2 .

Turn = 1.
  0
0 .
1 .
2 .
3 .
4 t
5 .
6 t
7 .
8 .
9 r
0 .
1 .
2 .

Turn = 2.
  0
0 .
1 .
2 .
3 .
4 t
5 .
6 t
7 .
8 r
9 .
0 .
1 .
2 .

Turn = 3.
  0
0 .
1 .
2 .
3 .
4 t
5 .
6 t
7 r
8 .
9 .
0 .
1 .
2 .

Turn = 4.
  0
0 .
1 .
2 .
3 .
4 t
5 .
6 t
7 t
8 .
9 .
0 .
1 .
2 .

Turn = 5.
  0
0 .
1 .
2 .
3 .
4 t
5 .
6 t
7 t
8 .
9 .
0 .
1 .
2 .

*** Darwin 5x14 ***
Turn = 0.
  01234567890123
0 ..............
1 .......t......
2 ......r.......
3 ..........r...
4 ..f...........

Turn = 7.
  01234567890123
0 .............r
1 .......t......
2 .............r
3 ..............
4 ..f...........

*** Darwin 11x6 ***
Turn = 0.
  012345
0 t.....
1 ......
2 ....h.
3 ......
4 ......
5 ....h.
6 ......
7 ......
8 ......
9 ......
0 ......

Turn = 4.
  012345
0 t.....
1 ......
2 h.....
3 ......
4 ......
5 ......
6 ......
7 ......
8 ......
9 ....h.
0 ......

Turn = 8.
  012345
0 t.....
1 ......
2 h.....
3 ......
4 ......
5 ......
6 ......
7 ......
8 ......
9 ......
0 ....h.

Turn = 12.
  012345
0 t.....
1 ......
2 h.....
3 ......
4 ......
5 ......
6 ......
7 ......
8 ......
9 ......
0 ....h.

Turn = 16.
  012345
0 t.....
1 ......
2 h.....
3 ......
4 ......
5 ......
6 ......
7 ......
8 ......
9 ......
0 ....h.

*** Darwin 1x14 ***
Turn = 0.
  01234567890123
0 tf..t.........

Turn = 3.
  01234567890123
0 tt..t.........

Turn = 6.
  01234567890123
0 tt..t.........

Turn = 9.
  01234567890123
0 tt..t.........

Turn = 12.
  01234567890123
0 tt..t.........

Turn = 15.
  01234567890123
0 tt..t.........

Turn = 18.
  01234567890123
0 tt..t.........

*** Darwin 7x10 ***
Turn = 0.
  0123456789
0 t.t.......
1 .....t....
2 ..........
3 ..........
4 ..........
5 f.........
6 ...t......

Turn = 3.
  0123456789
0 t.t.......
1 .....t....
2 ..........
3 ..........
4 ..........
5 f.........
6 ...t......

Turn = 6.
  0123456789
0 t.t.......
1 .....t....
2 ..........
3 ..........
4 ..........
5 f.........
6 ...t......

*** Darwin 13x18 ***
Turn = 0.
  012345678901234567
0 .f................
1 ..................
2 ........f.........
3 ..................
4 ..............f.t.
5 ...........t......
6 ........t.........
7 ..................
8 ..............r...
9 ........f.........
0 .r...r...t........
1 .........h.....h..
2 .................h

Turn = 10.
  012345678901234567
0 .f................
1 ..................
2 ........f.........
3 ..................
4 ..............f.t.
5 ...........t......
6 r.......t.........
7 ..................
8 ..................
9 r.......f.........
0 .........t........
1 h....h............
2 .........r.......h
